Totally Tidy Tuning Tools
…
]

---

# Get the results

```r
collect_metrics(grid_results)
```

```
## # A tibble: 40 x 8
##    neighbors weight_func num_comp .metric .estimator  mean     n std_err
##        <int> <chr>          <int> <chr>   <chr>      <dbl> <int>   <dbl>
##  1         1 rectangular        3 rmse    standard   3.21     15  0.363 
##  2         1 rectangular        3 rsq     standard   0.819    15  0.0469
##  3         2 gaussian           1 rmse    standard   3.08     15  0.310 
##  4         2 gaussian           1 rsq     standard   0.839    15  0.0369
##  5         3 inv                1 rmse    standard   3.14     15  0.292 
##  6         3 inv                1 rsq     standard   0.855    15  0.0310
##  7         3 triangular         3 rmse    standard   2.97     15  0.308 
##  8         3 triangular         3 rsq     standard   0.862    15  0.0357
##  9         4 biweight           3 rmse    standard   2.99     15  0.321 
## 10         4 biweight           3 rsq     standard   0.859    15  0.0387
## # … with 30 more rows
```
…
